{
   "family": {
      "primary": "Be Vietnam Pro"
   },
   "fsize": {
      "200": "1.8rem",
      "300": "2.4rem",
      "500": "3rem",
      "700": "4rem"
   },
   "size": {
      "100": ".8rem",
      "200:": "1.6rem",
      "300:": "2.5rem",
      "400:": "3.2rem",
      "500:": "4.0rem",
      "600:": "4.8rem",
      "700:": "5.5rem"
   },
   "primary": {
      "100": "hsl(240 12% 13%)",
      "300": "hsl(240 2% 44%)"
   },
   "accent": {
      "200": "hsl(12 88% 57%)",
      "300": "hsl(12 70% 70%)",
      "500": "hsl(228 53% 78%)"
   }
}
